<svg width="0" height="0" class="hidden">
  <symbol xmlns="http://www.w3.org/2000/svg" viewBox="0 0 24 24" id="calendar-event-line">
    <path fill="none" d="M0 0h24v24H0z"></path>
    <path d="M17 3h4a1 1 0 0 1 1 1v16a1 1 0 0 1-1 1H3a1 1 0 0 1-1-1V4a1 1 0 0 1 1-1h4V1h2v2h6V1h2v2zm3 6V5h-3v2h-2V5H9v2H7V5H4v4h16zm0 2H4v8h16v-8zM6 13h5v4H6v-4z" fill="currentColor"></path>
  </symbol>
  <symbol xmlns="http://www.w3.org/2000/svg" viewBox="0 0 24 24" id="file-download-line">
    <path d="M13 12H16L12 16L8 12H11V8H13V12ZM15 4H5V20H19V8H15V4ZM3 2.9918C3 2.44405 3.44749 2 3.9985 2H16L20.9997 7L21 20.9925C21 21.5489 20.5551 22 20.0066 22H3.9934C3.44476 22 3 21.5447 3 21.0082V2.9918Z" fill="currentColor"></path>
  </symbol>
  <symbol xmlns="http://www.w3.org/2000/svg" viewBox="0 0 24 24" id="stack-line">
    <path fill="none" d="M0 0h24v24H0z"></path>
    <path d="M20.083 15.2l1.202.721a.5.5 0 0 1 0 .858l-8.77 5.262a1 1 0 0 1-1.03 0l-8.77-5.262a.5.5 0 0 1 0-.858l1.202-.721L12 20.05l8.083-4.85zm0-4.7l1.202.721a.5.5 0 0 1 0 .858L12 17.65l-9.285-5.571a.5.5 0 0 1 0-.858l1.202-.721L12 15.35l8.083-4.85zm-7.569-9.191l8.771 5.262a.5.5 0 0 1 0 .858L12 13 2.715 7.429a.5.5 0 0 1 0-.858l8.77-5.262a1 1 0 0 1 1.03 0zM12 3.332L5.887 7 12 10.668 18.113 7 12 3.332z" fill="currentColor"></path>
  </symbol>
  <symbol xmlns="http://www.w3.org/2000/svg" viewBox="0 0 24 24" id="close-circle-line">
    <path fill="none" d="M0 0h24v24H0z"></path>
    <path d="M12 22C6.477 22 2 17.523 2 12S6.477 2 12 2s10 4.477 10 10-4.477 10-10 10zm0-2a8 8 0 1 0 0-16 8 8 0 0 0 0 16zm0-9.414l2.828-2.829 1.415 1.415L13.414 12l2.829 2.828-1.415 1.415L12 13.414l-2.828 2.829-1.415-1.415L10.586 12 7.757 9.172l1.415-1.415L12 10.586z" fill="currentColor"></path>
  </symbol>
  <symbol xmlns="http://www.w3.org/2000/svg" viewBox="0 0 24 24" id="checkbox-circle-line">
    <path fill="none" d="M0 0h24v24H0z"></path>
    <path d="M12 22C6.477 22 2 17.523 2 12S6.477 2 12 2s10 4.477 10 10-4.477 10-10 10zm0-2a8 8 0 1 0 0-16 8 8 0 0 0 0 16zm-.997-4L6.76 11.757l1.414-1.414 2.829 2.829 5.656-5.657 1.415 1.414L11.003 16z" fill="currentColor"></path>
  </symbol>
  <symbol xmlns="http://www.w3.org/2000/svg" viewBox="0 0 24 24" id="money-euro-circle-line">
    <path fill="none" d="M0 0h24v24H0z"></path>
    <path d="M12 22C6.477 22 2 17.523 2 12S6.477 2 12 2s10 4.477 10 10-4.477 10-10 10zm0-2a8 8 0 1 0 0-16 8 8 0 0 0 0 16zm-1.95-9H15v2h-4.95a2.5 2.5 0 0 0 4.064 1.41l1.7 1.133A4.5 4.5 0 0 1 8.028 13H7v-2h1.027a4.5 4.5 0 0 1 7.788-2.543L14.114 9.59A2.5 2.5 0 0 0 10.05 11z" fill="currentColor"></path>
  </symbol>
  <symbol xmlns="http://www.w3.org/2000/svg" viewBox="0 0 24 24" id="book-mark-line">
    <path fill="none" d="M0 0h24v24H0z"></path>
    <path d="M3 18.5V5a3 3 0 0 1 3-3h14a1 1 0 0 1 1 1v18a1 1 0 0 1-1 1H6.5A3.5 3.5 0 0 1 3 18.5zM19 20v-3H6.5a1.5 1.5 0 0 0 0 3H19zM10 4H6a1 1 0 0 0-1 1v10.337A3.486 3.486 0 0 1 6.5 15H19V4h-2v8l-3.5-2-3.5 2V4z" fill="currentColor"></path>
  </symbol>
  <symbol xmlns="http://www.w3.org/2000/svg" viewBox="0 0 24 24" id="store-2-line">
    <path d="M21 13.2422V20H22V22H2V20H3V13.2422C1.79401 12.435 1 11.0602 1 9.5C1 8.67286 1.22443 7.87621 1.63322 7.19746L4.3453 2.5C4.52393 2.1906 4.85406 2 5.21132 2H18.7887C19.1459 2 19.4761 2.1906 19.6547 2.5L22.3575 7.18172C22.7756 7.87621 23 8.67286 23 9.5C23 11.0602 22.206 12.435 21 13.2422ZM19 13.9725C18.8358 13.9907 18.669 14 18.5 14C17.2409 14 16.0789 13.478 15.25 12.6132C14.4211 13.478 13.2591 14 12 14C10.7409 14 9.5789 13.478 8.75 12.6132C7.9211 13.478 6.75911 14 5.5 14C5.331 14 5.16417 13.9907 5 13.9725V20H19V13.9725ZM5.78865 4L3.35598 8.21321C3.12409 8.59843 3 9.0389 3 9.5C3 10.8807 4.11929 12 5.5 12C6.53096 12 7.44467 11.3703 7.82179 10.4295C8.1574 9.59223 9.3426 9.59223 9.67821 10.4295C10.0553 11.3703 10.969 12 12 12C13.031 12 13.9447 11.3703 14.3218 10.4295C14.6574 9.59223 15.8426 9.59223 16.1782 10.4295C16.5553 11.3703 17.469 12 18.5 12C19.8807 12 21 10.8807 21 9.5C21 9.0389 20.8759 8.59843 20.6347 8.19746L18.2113 4H5.78865Z" fill="currentColor"></path>
  </symbol>
  <symbol xmlns="http://www.w3.org/2000/svg" viewBox="0 0 24 24" id="share-fill">
    <path d="M13.5759 17.2714L8.46576 14.484C7.83312 15.112 6.96187 15.5 6 15.5C4.067 15.5 2.5 13.933 2.5 12C2.5 10.067 4.067 8.5 6 8.5C6.96181 8.5 7.83301 8.88796 8.46564 9.51593L13.5759 6.72855C13.5262 6.49354 13.5 6.24983 13.5 6C13.5 4.067 15.067 2.5 17 2.5C18.933 2.5 20.5 4.067 20.5 6C20.5 7.933 18.933 9.5 17 9.5C16.0381 9.5 15.1669 9.11201 14.5343 8.48399L9.42404 11.2713C9.47382 11.5064 9.5 11.7501 9.5 12C9.5 12.2498 9.47383 12.4935 9.42408 12.7285L14.5343 15.516C15.167 14.888 16.0382 14.5 17 14.5C18.933 14.5 20.5 16.067 20.5 18C20.5 19.933 18.933 21.5 17 21.5C15.067 21.5 13.5 19.933 13.5 18C13.5 17.7502 13.5262 17.5064 13.5759 17.2714Z" fill="currentColor"></path>
  </symbol>
  <symbol xmlns="http://www.w3.org/2000/svg" viewBox="0 0 24 24" id="mail-send-line">
    <path fill="none" d="M0 0h24v24H0z"></path>
    <path d="M22 20.007a1 1 0 0 1-.992.993H2.992A.993.993 0 0 1 2 20.007V19h18V7.3l-8 7.2-10-9V4a1 1 0 0 1 1-1h18a1 1 0 0 1 1 1v16.007zM4.434 5L12 11.81 19.566 5H4.434zM0 15h8v2H0v-2zm0-5h5v2H0v-2z" fill="currentColor"></path>
  </symbol>
  <symbol xmlns="http://www.w3.org/2000/svg" viewBox="0 0 24 24" id="draft-line">
    <path fill="none" d="M0 0L24 0 24 24 0 24z"></path>
    <path d="M20 2c.552 0 1 .448 1 1v3.757l-2 2V4H5v16h14v-2.758l2-2V21c0 .552-.448 1-1 1H4c-.552 0-1-.448-1-1V3c0-.552.448-1 1-1h16zm1.778 6.808l1.414 1.414L15.414 18l-1.416-.002.002-1.412 7.778-7.778zM13 12v2H8v-2h5zm3-4v2H8V8h8z" fill="currentColor"></path>
  </symbol>
  <symbol xmlns="http://www.w3.org/2000/svg" viewBox="0 0 24 24" id="shopping-cart-line">
    <path fill="none" d="M0 0h24v24H0z"></path>
    <path d="M4 16V4H2V2h3a1 1 0 0 1 1 1v12h12.438l2-8H8V5h13.72a1 1 0 0 1 .97 1.243l-2.5 10a1 1 0 0 1-.97.757H5a1 1 0 0 1-1-1zm2 7a2 2 0 1 1 0-4 2 2 0 0 1 0 4zm12 0a2 2 0 1 1 0-4 2 2 0 0 1 0 4z" fill="currentColor"></path>
  </symbol>
  <symbol xmlns="http://www.w3.org/2000/svg" viewBox="0 0 24 24" id="map-pin-line">
    <path fill="none" d="M0 0h24v24H0z"></path>
    <path d="M12 20.9l4.95-4.95a7 7 0 1 0-9.9 0L12 20.9zm0 2.828l-6.364-6.364a9 9 0 1 1 12.728 0L12 23.728zM12 13a2 2 0 1 0 0-4 2 2 0 0 0 0 4zm0 2a4 4 0 1 1 0-8 4 4 0 0 1 0 8z" fill="currentColor"></path>
  </symbol>
  <symbol xmlns="http://www.w3.org/2000/svg" viewBox="0 0 24 24" id="award-line">
    <path fill="none" d="M0 0h24v24H0z"></path>
    <path d="M17 15.245v6.872a.5.5 0 0 1-.757.429L12 20l-4.243 2.546a.5.5 0 0 1-.757-.43v-6.87a8 8 0 1 1 10 0zm-8 1.173v3.05l3-1.8 3 1.8v-3.05A7.978 7.978 0 0 1 12 17a7.978 7.978 0 0 1-3-.582zM12 15a6 6 0 1 0 0-12 6 6 0 0 0 0 12z" fill="currentColor"></path>
  </symbol>
  <symbol xmlns="http://www.w3.org/2000/svg" viewBox="0 0 24 24" id="quill-pen-line">
    <path d="M6.93912 14.0327C6.7072 14.6562 6.51032 15.233 6.33421 15.8154C7.29345 15.1188 8.43544 14.6766 9.75193 14.512C12.2652 14.1979 14.4976 12.5384 15.6279 10.4535L14.1721 8.99878L15.5848 7.58407C15.9185 7.24993 16.2521 6.91603 16.5858 6.58237C17.0151 6.15301 17.5 5.35838 18.0129 4.21479C12.4197 5.08172 8.99484 8.50636 6.93912 14.0327ZM17 8.99728L18 9.99658C17 12.9966 14 15.9966 10 16.4966C7.33146 16.8301 5.66421 18.6635 4.99824 21.9966H3C4 15.9966 6 1.99658 21 1.99658C20.0009 4.99392 19.0018 6.99303 18.0027 7.99391C17.6662 8.33038 17.3331 8.66372 17 8.99728Z"  fill="currentColor"></path>
  </symbol>
  <symbol xmlns="http://www.w3.org/2000/svg" viewBox="0 0 24 24" id="information-line">
    <path d="M12 22C6.47715 22 2 17.5228 2 12C2 6.47715 6.47715 2 12 2C17.5228 2 22 6.47715 22 12C22 17.5228 17.5228 22 12 22ZM12 20C16.4183 20 20 16.4183 20 12C20 7.58172 16.4183 4 12 4C7.58172 4 4 7.58172 4 12C4 16.4183 7.58172 20 12 20ZM11 7H13V9H11V7ZM11 11H13V17H11V11Z" fill="currentColor"></path>
  </symbol>
  <symbol fill="none" xmlns="http://www.w3.org/2000/svg" viewBox="175 130 150 190" id="fiches_structures">
    <path fill-rule="evenodd" clip-rule="evenodd" d="M237.608 308.573C236.213 309.048 234.828 309.911 233.425 309.936C221.237 310.163 210.759 305.741 201.432 298.082C198.879 295.986 198.807 294.428 201.683 292.963C204.059 291.752 204.608 289.859 204.855 287.375C205.777 278.074 206.691 268.756 208.125 259.525C208.726 255.654 206.958 252.859 205.62 249.755C203.68 245.257 203.784 244.958 209.352 243.765C208.101 242.337 207.268 241.183 206.239 240.244C202.698 237.01 199.04 233.902 195.555 230.609C194.918 230.007 194.671 228.777 194.619 227.816C194.454 224.773 194.969 221.566 190.459 220.964C189.742 220.87 189.336 218.458 188.586 216.628C183.532 215.013 177.977 213.108 172.33 211.528C171.016 211.159 169.301 211.653 167.934 212.176C165.828 212.983 164.531 212.512 163.618 210.488C163.2 209.566 162.62 208.699 162.014 207.881C158.738 203.455 158.728 203.463 162.695 201.02C161.572 199.401 159.982 197.92 159.427 196.12C158.568 193.325 159.997 191.538 163.015 191.067C166.648 190.503 170.259 189.803 173.875 189.135C174.991 188.928 176.317 188.946 177.163 188.332C181.276 185.346 184.787 187.033 187.786 189.877C190.466 192.418 192.931 191.941 195.804 190.652C197.445 189.916 199.242 189.531 202.265 189.312C201.357 185.244 200.447 181.177 199.538 177.109C199.259 175.859 198.952 174.617 198.709 173.361C197.758 168.441 198.429 167.816 203.216 169.013C204.698 169.382 206.245 169.515 207.705 169.949C208.591 170.213 209.606 170.664 210.136 171.357C210.994 172.476 211.226 174.652 212.206 174.994C215.06 175.986 218.137 176.514 221.165 176.767C222.54 176.882 224.005 175.927 225.819 175.329C223.325 171.489 225.444 169.763 228.373 168.284C232.363 166.268 236.22 163.97 240.285 162.13C242.407 161.171 243.58 159.913 243.769 157.661C243.78 157.532 243.803 157.407 243.827 157.28C246.27 144.085 246.288 144.124 258.452 138.661C260.958 137.534 262.493 137.825 262.636 140.772C262.827 144.76 264.447 146.606 268.765 146.569C270.055 146.557 271.37 149.262 273.08 151.178C275.412 152.205 278.654 153.352 281.583 155.043C283.042 155.885 284.456 157.557 284.953 159.145C285.885 162.124 287.179 162.186 289.304 160.524C289.909 160.049 290.454 159.442 291.137 159.139C292.002 158.752 293.212 158.17 293.841 158.498C294.467 158.826 294.785 160.16 294.848 161.082C295.342 168.197 299.222 171.863 306.455 171.971C308.247 171.996 310.161 171.768 311.797 172.319C313.68 172.954 315.347 174.276 317.051 175.383C318.864 176.563 320.452 178.311 322.421 178.99C327.612 180.779 332.964 182.094 338.233 183.662C339.938 184.17 341.917 185.332 340.093 187.107C333.031 193.984 333.181 203.3 331.195 211.9C330.23 216.074 327.342 218.724 324.642 218.986C322.007 221.732 320.193 223.578 318.437 225.478C317.626 226.355 316.692 227.236 316.236 228.296C315.379 230.29 314.827 232.417 314.065 234.743C318.519 233.509 320.283 236.343 321.198 240.583C321.499 241.97 322.959 243.071 323.623 244.433C324.062 245.335 324.545 247.005 324.122 247.412C321.248 250.172 322.783 252.92 324.063 255.476C325.701 258.747 325.301 260.876 321.769 262.441C319.158 263.599 318.805 265.47 321.736 266.675C324.75 267.911 324.855 269.737 323.982 272.46C322.584 276.823 324.475 279.304 329.13 279.663C333.904 280.03 334.317 280.802 331.505 284.868C326.246 292.475 320.81 299.999 311.688 303.399C309.902 304.065 307.569 303.963 305.68 303.473C303.37 302.871 301.208 301.588 299.083 300.418C296.183 298.82 293.424 297.787 290.114 299.607C289.223 300.095 287.39 299.546 286.331 298.908C284.501 297.804 282.939 296.256 281.074 294.738C277.488 297.543 273.941 300.066 270.699 302.933C268.317 305.04 269.409 307.55 270.739 309.872C273.18 314.143 273.045 314.434 268.162 315.536C267.164 315.763 266.099 315.796 265.159 316.161C260.579 317.946 257.019 316.854 252.888 313.954C248.513 310.882 242.926 309.534 237.868 307.433C237.78 307.819 237.694 308.196 237.608 308.573ZM166.872 208.149C166.978 207.833 167.085 207.516 167.192 207.198C170.329 207.733 173.756 207.641 176.544 208.93C182.393 211.637 189.892 210.268 194.201 217.354C195.945 220.219 198.12 222.561 198.518 226.077C198.666 227.378 199.068 228.989 199.956 229.802C202.927 232.519 205.963 235.267 209.358 237.388C213.534 239.995 213.881 246.226 209.368 249.136C212.687 253.159 212.267 257.812 211.639 262.591C210.505 271.222 209.713 279.9 208.5 288.519C208.144 291.052 206.852 293.455 205.595 297.039C210.232 299.353 215.643 303.182 221.637 304.668C225.885 305.723 231.465 308.787 235.704 303.522C235.905 303.27 236.721 303.319 237.154 303.481C243.01 305.678 249.47 307.002 254.506 310.422C258.961 313.449 262.492 313.256 266.787 311.633C264.403 303.565 264.741 301.942 270.996 297.721C272.903 296.434 274.642 294.899 276.458 293.477C281.183 289.784 281.103 289.885 285.987 293.651C287.278 294.645 289.486 295.6 290.807 295.163C293.634 294.229 295.928 294.419 298.457 295.851C301.121 297.359 303.941 298.615 306.771 299.792C307.708 300.181 309.012 300.327 309.938 299.995C317.958 297.138 322.481 290.485 327.497 284.186C325.891 283.168 324.761 282.309 323.512 281.69C319.594 279.751 317.379 277.288 319.762 272.633C320.111 271.953 318.975 270.453 318.421 269.387C317.616 267.84 316.388 266.436 315.923 264.805C314.768 260.75 318.941 260.112 320.751 258.164C320.018 254.062 315.843 250.422 319.969 246.621C318.523 243.709 317.21 241.068 316.107 238.844C313.36 240.59 311.006 242.229 308.502 243.588C307.796 243.973 306.649 243.547 305.704 243.492C305.807 242.453 305.548 241.156 306.074 240.42C308.392 237.18 307.913 232.404 311.837 230.027C312.264 229.767 311.992 228.533 312.309 227.877C313.075 226.291 313.626 224.223 314.932 223.357C317.457 221.685 319.14 219.957 319.3 216.748C319.344 215.894 321.126 214.277 321.751 214.436C326.449 215.62 327.031 212.571 327.858 209.237C329.74 201.673 328.929 193.202 335.888 186.77C329.968 185.174 324.666 183.803 319.407 182.288C318.133 181.919 316.281 181.356 315.914 180.409C314.026 175.55 310.059 175.839 306.056 175.845C299.188 175.859 292.736 171.179 290.68 164.779C285.214 166.586 282.619 166.054 282.027 162.453C281.217 157.531 277.298 156.168 273.758 155.881C269.763 155.557 267.885 154.246 267.698 150.363C262.917 149.955 258.733 149.031 259.187 143.252C251.619 144.836 247.8 149.117 247.781 156.564C247.777 157.822 247.627 159.24 247.029 160.294C246.115 161.911 245.047 163.786 243.53 164.653C238.802 167.354 233.834 169.632 229.084 172.008C230.727 177.649 230.561 177.289 225.859 179.477C221.004 181.739 216.656 180.01 212.05 179.125C208.947 178.527 206.638 177.541 206.859 173.889C205.425 173.594 204.226 173.346 202.927 173.08C203.707 176.631 204.406 179.906 205.15 183.17C205.76 185.852 206.457 188.512 207.048 191.197C207.308 192.371 207.4 193.582 207.567 194.775C206.365 194.81 204.996 195.232 203.99 194.804C200.979 193.521 198.416 193.663 195.268 194.986C192.085 196.326 188.374 196.576 185.468 193.14C184.446 191.929 182.202 191.072 180.592 191.181C177.238 191.404 173.925 192.331 170.615 193.062C168.231 193.589 165.883 194.269 163.116 194.984C169.97 201.265 171.837 202.037 164.855 204.97C165.54 206.048 166.206 207.099 166.872 208.149Z" fill="currentColor"></path>
    <path fill-rule="evenodd" clip-rule="evenodd" d="M261.993 214.545H261.891C262.082 213.782 262.185 212.983 262.185 212.161C262.185 206.753 257.8 202.368 252.391 202.368C246.983 202.368 242.598 206.753 242.598 212.161C242.598 212.983 242.701 213.782 242.891 214.545H242.791L243.156 215.423C243.278 215.769 243.418 216.107 243.577 216.435L247.591 226.074L252.391 237.602L257.192 226.074L261.206 216.435C261.364 216.107 261.505 215.769 261.627 215.423L261.993 214.545Z" fill="currentColor"></path>
    <path fill-rule="evenodd" clip-rule="evenodd" d="M212.089 179.312H211.987C212.178 178.548 212.281 177.75 212.281 176.927C212.281 171.519 207.897 167.134 202.487 167.134C197.079 167.134 192.694 171.519 192.694 176.927C192.694 177.75 192.797 178.548 192.987 179.312H192.887L193.252 180.189C193.374 180.536 193.514 180.874 193.673 181.201L197.687 190.84L202.487 202.369L207.288 190.84L211.302 181.201C211.46 180.874 211.601 180.536 211.723 180.189L212.089 179.312Z" fill="currentColor"></path>
    <path fill-rule="evenodd" clip-rule="evenodd" d="M239.806 244.38H239.705C239.896 243.618 239.999 242.819 239.999 241.997C239.999 236.588 235.614 232.203 230.205 232.203C224.796 232.203 220.411 236.588 220.411 241.997C220.411 242.819 220.515 243.618 220.705 244.38H220.604L220.969 245.259C221.092 245.605 221.232 245.943 221.391 246.27L225.405 255.91L230.205 267.437L235.005 255.91L239.019 246.271C239.179 245.943 239.318 245.605 239.441 245.259L239.806 244.38Z" fill="currentColor"></path>
  </symbol>
</svg>
